This is BibTeX, Version 0.99d (TeX Live 2015)
Capacity: max_strings=35307, hash_size=35307, hash_prime=30011
The top-level auxiliary file: egpaper_for_review.aux
The style file: ieee.bst
Database file #1: egbib.bib
You've used 33 entries,
            2120 wiz_defined-function locations,
            697 strings with 9627 characters,
and the built_in function-call counts, 13320 in all, are:
= -- 1379
> -- 565
< -- 14
+ -- 221
- -- 188
* -- 913
:= -- 2072
add.period$ -- 109
call.type$ -- 33
change.case$ -- 193
chr.to.int$ -- 0
cite$ -- 33
duplicate$ -- 535
empty$ -- 1051
format.name$ -- 188
if$ -- 2894
int.to.chr$ -- 0
int.to.str$ -- 33
missing$ -- 33
newline$ -- 168
num.names$ -- 66
pop$ -- 205
preamble$ -- 1
purify$ -- 160
quote$ -- 0
skip$ -- 412
stack$ -- 0
substring$ -- 989
swap$ -- 177
text.length$ -- 14
text.prefix$ -- 0
top$ -- 0
type$ -- 132
warning$ -- 0
while$ -- 136
width$ -- 35
write$ -- 371
