\relax 
\providecommand\hyper@newdestlabel[2]{}
\providecommand\HyperFirstAtBeginDocument{\AtBeginDocument}
\HyperFirstAtBeginDocument{\ifx\hyper@anchor\@undefined
\global\let\oldcontentsline\contentsline
\gdef\contentsline#1#2#3#4{\oldcontentsline{#1}{#2}{#3}}
\global\let\oldnewlabel\newlabel
\gdef\newlabel#1#2{\newlabelxx{#1}#2}
\gdef\newlabelxx#1#2#3#4#5#6{\oldnewlabel{#1}{{#2}{#3}}}
\AtEndDocument{\ifx\hyper@anchor\@undefined
\let\contentsline\oldcontentsline
\let\newlabel\oldnewlabel
\fi}
\fi}
\global\let\hyper@last\relax 
\gdef\HyperFirstAtBeginDocument#1{#1}
\providecommand\HyField@AuxAddToFields[1]{}
\providecommand\HyField@AuxAddToCoFields[2]{}
\citation{toshev2012shape}
\citation{trinh2011skeleton}
\citation{kyriazis2014scalable}
\citation{ben2012dual}
\citation{panagiotakis2008shape}
\citation{grammalidis2000head}
\citation{kwolek2004stereovision}
\citation{chen2014semantic}
\citation{long2015fully}
\citation{shen2016deepskeleton}
\citation{shen2015deepcontour}
\citation{xie2015holistically}
\citation{fan2015jumpcut}
\citation{marki2016bilateral}
\citation{ramakanth2014seamseg}
\citation{taylor2015causal}
\@writefile{toc}{\contentsline {section}{\numberline {1}\hskip -1em.\nobreakspace  {}Introduction}{1}{section.1}}
\@writefile{lof}{\contentsline {figure}{\numberline {1}{\ignorespaces Examples of the output on four different datasets: LEMS, MPEG-7, SiSHA, PASCAL Horses. For each pair of images, the left denotes the given 2D shape and the right denotes our results. Thin lines of varying color indicate the symmetry axes of distinct parts. Black ellipses denote our output set of ellipses fit to the parts. Note: articulated parts attain more than one ellipse (e.g. the robot arm (top left)) or leg of the person (row 4, left column)).}}{1}{figure.1}}
\newlabel{all_examples}{{1}{1}{Examples of the output on four different datasets: LEMS, MPEG-7, SiSHA, PASCAL Horses. For each pair of images, the left denotes the given 2D shape and the right denotes our results. Thin lines of varying color indicate the symmetry axes of distinct parts. Black ellipses denote our output set of ellipses fit to the parts. Note: articulated parts attain more than one ellipse (e.g. the robot arm (top left)) or leg of the person (row 4, left column))}{figure.1}{}}
\citation{fitzgibbon1999direct}
\citation{xu1993randomized}
\citation{biederman1987recognition}
\citation{braunstein1989parts}
\citation{hoffman1984parts}
\citation{panagiotakis2015parameter}
\citation{blum1973biological}
\citation{zeng20082d}
\citation{biederman1987recognition}
\citation{braunstein1989parts}
\citation{hoffman1984parts}
\citation{panagiotakis2015parameter}
\citation{xu2010fitting}
\citation{xu2010fitting}
\citation{panagiotakis2015parameter}
\citation{braunstein1989parts}
\citation{hoffman1984parts}
\citation{latecki1999convexity}
\citation{liu2010convex}
\citation{ren2011minimum}
\citation{biederman1987recognition}
\citation{bookstein1979fitting}
\citation{fitzgibbon1999direct}
\citation{lukacs1998faithful}
\citation{xu2010fitting}
\citation{panagiotakis2015parameter}
\citation{xu2010fitting}
\citation{panagiotakis2015parameter}
\citation{panagiotakis2015parameter}
\citation{braunstein1989parts}
\@writefile{toc}{\contentsline {section}{\numberline {2}\hskip -1em.\nobreakspace  {}Related Work}{2}{section.2}}
\newlabel{related_works}{{2}{2}{\hskip -1em.~Related Work}{section.2}{}}
\@writefile{toc}{\contentsline {subsection}{\numberline {2.1}\hskip -1em.\nobreakspace  {}Modeling 2D Objects with Ellipses}{2}{subsection.2.1}}
\citation{latecki1999convexity}
\citation{wang2016shape}
\citation{hoffman1984parts}
\citation{latecki1999convexity}
\citation{lien2004approximate}
\citation{liu2010convex}
\citation{ren2011minimum}
\citation{ren2013minimum}
\citation{wang2016shape}
\citation{zeng20082d}
\citation{zeng20082d}
\citation{blum1973biological}
\citation{zeng20082d}
\citation{fitzgibbon1999direct}
\citation{blum1973biological}
\@writefile{lof}{\contentsline {figure}{\numberline {2}{\ignorespaces Overview of our approach. Given the binary mask of a 2D object, we initialize our approach via cues provided by the 2D skeleton and protrusions of the 2D object to produce a set of candidate regions for ellipse fitting. We then apply our local ellipse fitting method and later minimize the cost of the model to produce the final results.}}{3}{figure.2}}
\newlabel{overview}{{2}{3}{Overview of our approach. Given the binary mask of a 2D object, we initialize our approach via cues provided by the 2D skeleton and protrusions of the 2D object to produce a set of candidate regions for ellipse fitting. We then apply our local ellipse fitting method and later minimize the cost of the model to produce the final results}{figure.2}{}}
\@writefile{toc}{\contentsline {subsection}{\numberline {2.2}\hskip -1em.\nobreakspace  {}2D Shape Decomposition}{3}{subsection.2.2}}
\@writefile{toc}{\contentsline {section}{\numberline {3}\hskip -1em.\nobreakspace  {}Paper Layout}{3}{section.3}}
\@writefile{toc}{\contentsline {section}{\numberline {4}\hskip -1em.\nobreakspace  {}Our Approach}{3}{section.4}}
\newlabel{approach}{{4}{3}{\hskip -1em.~Our Approach}{section.4}{}}
\@writefile{toc}{\contentsline {subsection}{\numberline {4.1}\hskip -1em.\nobreakspace  {}Initialization}{3}{subsection.4.1}}
\newlabel{initialization}{{4.1}{3}{\hskip -1em.~Initialization}{subsection.4.1}{}}
\citation{zeng20082d}
\@writefile{lof}{\contentsline {figure}{\numberline {3}{\ignorespaces Example of protrusion strength computation. We measure the protrusion strength by Eqn. \ref  {protrusion}. We begin by finding the base of the protrusion, $\mathbf  {b}^h_1$ and $\mathbf  {b}^h_2$, by searching outwardly in all directions from a junction $\mathbf  {j}$. $r_\mathbf  {j}$ is the radius needed for finding $\mathbf  {b}^h_1$ and $\mathbf  {b}^h_2$. We denote the length of the protrusion from a junction $\mathbf  {j}$ as $\gamma (\mathbf  {s}^\mathbf  {j}_h)$. We then compute the protrusion strength $f_p$ via Eqn. \ref  {protrusion}. Should $f_p$ exceed a threshold $\tau $ then we consider the region it's own part, else it is merged with the region from which it protrudes.}}{4}{figure.3}}
\newlabel{protrusion_example}{{3}{4}{Example of protrusion strength computation. We measure the protrusion strength by \eqnref {protrusion}. We begin by finding the base of the protrusion, $\mathbf {b}^h_1$ and $\mathbf {b}^h_2$, by searching outwardly in all directions from a junction $\mathbf {j}$. $r_\mathbf {j}$ is the radius needed for finding $\mathbf {b}^h_1$ and $\mathbf {b}^h_2$. We denote the length of the protrusion from a junction $\mathbf {j}$ as $\gamma (\mathbf {s}^\mathbf {j}_h)$. We then compute the protrusion strength $f_p$ via \eqnref {protrusion}. Should $f_p$ exceed a threshold $\tau $ then we consider the region it's own part, else it is merged with the region from which it protrudes}{figure.3}{}}
\@writefile{lof}{\contentsline {figure}{\numberline {4}{\ignorespaces Example of the $\kappa -1$ cut and local ellipse fitting. (a) We denote $\mathbf  {A}_j$ as the symmetric axis with which we will perform $\kappa -1$ cut on a region $\mathbf  {R}_j$. We performed 2-cut over $\mathbf  {A}_j$ to generate 3 segments represented by $\mathbf  {a}^j_1$, $\mathbf  {a}^j_2$, and $\mathbf  {a}^j_3$ and their corresponding subregions $\mathbf  {r}^j_1$, $\mathbf  {r}^j_2$, and $\mathbf  {r}^j_3$ denoted by red, purple and blue. (b) We use least-square ellipse fitting to generate the local ellipse model represented by $\mathbf  {e^j_1}$, $\mathbf  {e^j_2}$ and $\mathbf  {e^j_3}$ for the part region, $\mathbf  {R}_j$. }}{4}{figure.4}}
\newlabel{k_cuts_example}{{4}{4}{Example of the $\kappa -1$ cut and local ellipse fitting. (a) We denote $\mathbf {A}_j$ as the symmetric axis with which we will perform $\kappa -1$ cut on a region $\mathbf {R}_j$. We performed 2-cut over $\mathbf {A}_j$ to generate 3 segments represented by $\mathbf {a}^j_1$, $\mathbf {a}^j_2$, and $\mathbf {a}^j_3$ and their corresponding subregions $\mathbf {r}^j_1$, $\mathbf {r}^j_2$, and $\mathbf {r}^j_3$ denoted by red, purple and blue. (b) We use least-square ellipse fitting to generate the local ellipse model represented by $\mathbf {e^j_1}$, $\mathbf {e^j_2}$ and $\mathbf {e^j_3}$ for the part region, $\mathbf {R}_j$}{figure.4}{}}
\newlabel{protrusion}{{1}{4}{\hskip -1em.~Initialization}{equation.4.1}{}}
\citation{biederman1987recognition}
\citation{braunstein1989parts}
\@writefile{lof}{\contentsline {figure}{\numberline {5}{\ignorespaces Examples of output of our method applied to PASCAL horses. Given the candidate regions produced by our initialization step, we apply our local ellipse fitting method (Sec. \ref  {local_model_selection}) to model the local deformities in the regions. We then minimize the cost of the model over the entire set of ellipses (Sec. \ref  {model_cost_min}). We see in these examples that we are able to locate and model the joints in the legs of the horses.}}{5}{figure.5}}
\newlabel{horse_examples}{{5}{5}{Examples of output of our method applied to PASCAL horses. Given the candidate regions produced by our initialization step, we apply our local ellipse fitting method (\secref {local_model_selection}) to model the local deformities in the regions. We then minimize the cost of the model over the entire set of ellipses (\secref {model_cost_min}). We see in these examples that we are able to locate and model the joints in the legs of the horses}{figure.5}{}}
\@writefile{toc}{\contentsline {subsection}{\numberline {4.2}\hskip -1em.\nobreakspace  {}Local Model Selection}{5}{subsection.4.2}}
\newlabel{local_model_selection}{{4.2}{5}{\hskip -1em.~Local Model Selection}{subsection.4.2}{}}
\newlabel{ellipse_fit_cost}{{2}{5}{\hskip -1em.~Local Model Selection}{equation.4.2}{}}
\newlabel{inner_angle}{{3}{5}{\hskip -1em.~Local Model Selection}{equation.4.3}{}}
\citation{panagiotakis2015parameter}
\citation{xu2010fitting}
\citation{panagiotakis2015parameter}
\citation{panagiotakis2015parameter}
\citation{xu2010fitting}
\@writefile{lot}{\contentsline {table}{\numberline {1}{\ignorespaces Intersection-Over-Union (IOU) results of each method's performance on LEMS, MPEG-7, SiSHA shape datasets and PASCAL horses silhouette dataset. Our method proves to be comparable to competing ellipse fitting methods in terms of the correctness of coverage as measured by IOU.}}{6}{table.1}}
\newlabel{iou_results}{{1}{6}{Intersection-Over-Union (IOU) results of each method's performance on LEMS, MPEG-7, SiSHA shape datasets and PASCAL horses silhouette dataset. Our method proves to be comparable to competing ellipse fitting methods in terms of the correctness of coverage as measured by IOU}{table.1}{}}
\@writefile{toc}{\contentsline {subsection}{\numberline {4.3}\hskip -1em.\nobreakspace  {}Model Cost Minimization}{6}{subsection.4.3}}
\newlabel{model_cost_min}{{4.3}{6}{\hskip -1em.~Model Cost Minimization}{subsection.4.3}{}}
\newlabel{model_cost_minimize}{{4}{6}{\hskip -1em.~Model Cost Minimization}{equation.4.4}{}}
\newlabel{choose_uv}{{5}{6}{\hskip -1em.~Model Cost Minimization}{equation.4.5}{}}
\@writefile{lot}{\contentsline {table}{\numberline {2}{\ignorespaces Each method's average run-time in seconds for each binary image on LEMS, MPEG-7, SiSHA shape datasets and PASCAL horses silhouette dataset. Each method was tested on a single core. Our method provides comparable results to the competing methods while outperforming them by a large margin in terms of speed.}}{6}{table.2}}
\newlabel{runtime_results}{{2}{6}{Each method's average run-time in seconds for each binary image on LEMS, MPEG-7, SiSHA shape datasets and PASCAL horses silhouette dataset. Each method was tested on a single core. Our method provides comparable results to the competing methods while outperforming them by a large margin in terms of speed}{table.2}{}}
\@writefile{toc}{\contentsline {section}{\numberline {5}\hskip -1em.\nobreakspace  {}Experimental Results}{6}{section.5}}
\newlabel{experiments}{{5}{6}{\hskip -1em.~Experimental Results}{section.5}{}}
\citation{blum1973biological}
\@writefile{lof}{\contentsline {figure}{\numberline {6}{\ignorespaces Example of a part-based pseudo-3D model built by applying our ellipse fitting approach to two images from PASCAL horses. (a) denotes the set of ellipses modeling the profile view of the horse. (b) denotes the set of ellipses modeling the frontal view of another horse. (c) denotes the set of ellipses describing a model of a horse generated by combining (a) and (b). Each set of ellipses are rotated about the vertical axis by $22.5^{\circ }$ increments. Note: in (a) and (b), we have no depth information (we assume all ellipsoids lie on the same plane), and thus all parts align perfectly in the highlighted center image (at $90^{\circ }$ rotation). We match the ellipses to a set of semantic parts of the horses and establish correspondence between the two sets of ellipses. This allows us to generate a pseudo-3D model of the horses. Despite the fact that these two images are taken from different horses at different viewpoints with different poses, our method is able to register the two and render a richer model.}}{7}{figure.6}}
\newlabel{3d_model}{{6}{7}{Example of a part-based pseudo-3D model built by applying our ellipse fitting approach to two images from PASCAL horses. (a) denotes the set of ellipses modeling the profile view of the horse. (b) denotes the set of ellipses modeling the frontal view of another horse. (c) denotes the set of ellipses describing a model of a horse generated by combining (a) and (b). Each set of ellipses are rotated about the vertical axis by $22.5^{\circ }$ increments. Note: in (a) and (b), we have no depth information (we assume all ellipsoids lie on the same plane), and thus all parts align perfectly in the highlighted center image (at $90^{\circ }$ rotation). We match the ellipses to a set of semantic parts of the horses and establish correspondence between the two sets of ellipses. This allows us to generate a pseudo-3D model of the horses. Despite the fact that these two images are taken from different horses at different viewpoints with different poses, our method is able to register the two and render a richer model}{figure.6}{}}
\@writefile{toc}{\contentsline {section}{\numberline {6}\hskip -1em.\nobreakspace  {}Application of our Model}{7}{section.6}}
\newlabel{application}{{6}{7}{\hskip -1em.~Application of our Model}{section.6}{}}
\bibstyle{ieee}
\bibdata{egbib}
\bibcite{ben2012dual}{1}
\@writefile{toc}{\contentsline {section}{\numberline {7}\hskip -1em.\nobreakspace  {}Discussion}{8}{section.7}}
\newlabel{discussion}{{7}{8}{\hskip -1em.~Discussion}{section.7}{}}
\bibcite{biederman1987recognition}{2}
\bibcite{blum1973biological}{3}
\bibcite{bookstein1979fitting}{4}
\bibcite{braunstein1989parts}{5}
\bibcite{chen2014semantic}{6}
\bibcite{fan2015jumpcut}{7}
\bibcite{fitzgibbon1999direct}{8}
\bibcite{grammalidis2000head}{9}
\bibcite{hoffman1984parts}{10}
\bibcite{kwolek2004stereovision}{11}
\bibcite{kyriazis2014scalable}{12}
\bibcite{latecki1999convexity}{13}
\bibcite{lien2004approximate}{14}
\bibcite{liu2010convex}{15}
\bibcite{long2015fully}{16}
\bibcite{lukacs1998faithful}{17}
\bibcite{marki2016bilateral}{18}
\bibcite{panagiotakis2015parameter}{19}
\bibcite{panagiotakis2008shape}{20}
\bibcite{ramakanth2014seamseg}{21}
\bibcite{ren2011minimum}{22}
\bibcite{ren2013minimum}{23}
\bibcite{shen2015deepcontour}{24}
\bibcite{shen2016deepskeleton}{25}
\bibcite{taylor2015causal}{26}
\bibcite{toshev2012shape}{27}
\bibcite{trinh2011skeleton}{28}
\bibcite{wang2016shape}{29}
\bibcite{xie2015holistically}{30}
\bibcite{xu2010fitting}{31}
\bibcite{xu1993randomized}{32}
\bibcite{zeng20082d}{33}
