This is BibTeX, Version 0.99d (TeX Live 2015)
Capacity: max_strings=35307, hash_size=35307, hash_prime=30011
The top-level auxiliary file: supp_mat.aux
The style file: ieee.bst
Database file #1: egbib.bib
You've used 2 entries,
            2120 wiz_defined-function locations,
            513 strings with 4055 characters,
and the built_in function-call counts, 643 in all, are:
= -- 62
> -- 31
< -- 0
+ -- 12
- -- 10
* -- 48
:= -- 117
add.period$ -- 6
call.type$ -- 2
change.case$ -- 11
chr.to.int$ -- 0
cite$ -- 2
duplicate$ -- 21
empty$ -- 47
format.name$ -- 10
if$ -- 126
int.to.chr$ -- 0
int.to.str$ -- 2
missing$ -- 2
newline$ -- 13
num.names$ -- 4
pop$ -- 9
preamble$ -- 1
purify$ -- 9
quote$ -- 0
skip$ -- 15
stack$ -- 0
substring$ -- 41
swap$ -- 2
text.length$ -- 0
text.prefix$ -- 0
top$ -- 0
type$ -- 8
warning$ -- 0
while$ -- 6
width$ -- 3
write$ -- 23
