\relax 
\providecommand\hyper@newdestlabel[2]{}
\providecommand\HyperFirstAtBeginDocument{\AtBeginDocument}
\HyperFirstAtBeginDocument{\ifx\hyper@anchor\@undefined
\global\let\oldcontentsline\contentsline
\gdef\contentsline#1#2#3#4{\oldcontentsline{#1}{#2}{#3}}
\global\let\oldnewlabel\newlabel
\gdef\newlabel#1#2{\newlabelxx{#1}#2}
\gdef\newlabelxx#1#2#3#4#5#6{\oldnewlabel{#1}{{#2}{#3}}}
\AtEndDocument{\ifx\hyper@anchor\@undefined
\let\contentsline\oldcontentsline
\let\newlabel\oldnewlabel
\fi}
\fi}
\global\let\hyper@last\relax 
\gdef\HyperFirstAtBeginDocument#1{#1}
\providecommand\HyField@AuxAddToFields[1]{}
\providecommand\HyField@AuxAddToCoFields[2]{}
\citation{panagiotakis2015parameter}
\citation{xu2010fitting}
\bibstyle{ieee}
\bibdata{egbib}
\bibcite{panagiotakis2015parameter}{1}
\@writefile{lof}{\contentsline {figure}{\numberline {1}{\ignorespaces Examples of the local ellipse fitting procedure using $\kappa -1$ cuts. Given the intermediary results after applying protrusion cues, we first find the symmetric axis $\mathbf  {A}_j$. We then perform $\kappa -1$ cuts along $\mathbf  {A}_j$ to produce $\kappa $ regions. A candidate ellipse model is proposed for each value of $\kappa $, which typically ranges from 1 to 5. For each region, the local ellipse model that minimizes Eqn. 2 from the main paper is selected as the representation.}}{1}{figure.1}}
\newlabel{k_cuts_pipeline}{{1}{1}{Examples of the local ellipse fitting procedure using $\kappa -1$ cuts. Given the intermediary results after applying protrusion cues, we first find the symmetric axis $\mathbf {A}_j$. We then perform $\kappa -1$ cuts along $\mathbf {A}_j$ to produce $\kappa $ regions. A candidate ellipse model is proposed for each value of $\kappa $, which typically ranges from 1 to 5. For each region, the local ellipse model that minimizes Eqn. 2 from the main paper is selected as the representation}{figure.1}{}}
\@writefile{toc}{\contentsline {section}{\numberline {1}\hskip -1em.\nobreakspace  {}Local Ellipse Fitting with $\kappa -1$ cuts}{1}{section.1}}
\@writefile{toc}{\contentsline {section}{\numberline {2}\hskip -1em.\nobreakspace  {}Additional results}{1}{section.2}}
\@writefile{lof}{\contentsline {figure}{\numberline {2}{\ignorespaces Each row contains an input shape in the left column, followed by the output of each method: Ours, AEFA, DEFA, and EMAR (left to right). Each method was tested on over 4000 2D images from four datasets: LEMS, MPEG-7, SiSHA, and PASCAL Horses.}}{2}{figure.2}}
\newlabel{supp_comparisons}{{2}{2}{Each row contains an input shape in the left column, followed by the output of each method: Ours, AEFA, DEFA, and EMAR (left to right). Each method was tested on over 4000 2D images from four datasets: LEMS, MPEG-7, SiSHA, and PASCAL Horses}{figure.2}{}}
\bibcite{xu2010fitting}{2}
