\relax 
\providecommand\hyper@newdestlabel[2]{}
\providecommand\HyperFirstAtBeginDocument{\AtBeginDocument}
\HyperFirstAtBeginDocument{\ifx\hyper@anchor\@undefined
\global\let\oldcontentsline\contentsline
\gdef\contentsline#1#2#3#4{\oldcontentsline{#1}{#2}{#3}}
\global\let\oldnewlabel\newlabel
\gdef\newlabel#1#2{\newlabelxx{#1}#2}
\gdef\newlabelxx#1#2#3#4#5#6{\oldnewlabel{#1}{{#2}{#3}}}
\AtEndDocument{\ifx\hyper@anchor\@undefined
\let\contentsline\oldcontentsline
\let\newlabel\oldnewlabel
\fi}
\fi}
\global\let\hyper@last\relax 
\gdef\HyperFirstAtBeginDocument#1{#1}
\providecommand\HyField@AuxAddToFields[1]{}
\providecommand\HyField@AuxAddToCoFields[2]{}
\bibstyle{plainnat}
\citation{toshev2012shape}
\citation{trinh2011skeleton}
\citation{kyriazis2014scalable}
\citation{ben2012dual}
\citation{panagiotakis2008shape}
\citation{grammalidis2000head}
\citation{kwolek2004stereovision}
\citation{chen2014semantic}
\citation{long2015fully}
\citation{shen2015deepcontour}
\citation{shen2016deepskeleton}
\citation{xie2015holistically}
\citation{fan2015jumpcut}
\citation{marki2016bilateral}
\citation{ramakanth2014seamseg}
\citation{taylor2015causal}
\citation{fitzgibbon1999direct}
\citation{xu1993randomized}
\citation{biederman1987recognition}
\citation{braunstein1989parts}
\citation{hoffman1984parts}
\@writefile{toc}{\contentsline {section}{\numberline {1}Introduction}{1}{section.1}}
\citation{panagiotakis2015parameter}
\citation{blum1973biological}
\citation{zeng20082d}
\citation{panagiotakis2015parameter}
\citation{biederman1987recognition}
\citation{braunstein1989parts}
\citation{hoffman1984parts}
\citation{panagiotakis2015parameter}
\citation{xu2010fitting}
\citation{xu2010fitting}
\citation{panagiotakis2015parameter}
\citation{biederman1987recognition}
\citation{braunstein1989parts}
\citation{hoffman1984parts}
\citation{latecki1999convexity}
\citation{liu2010convex}
\citation{ren2011minimum}
\citation{biederman1987recognition}
\@writefile{lof}{\contentsline {figure}{\numberline {1}{\ignorespaces Examples of the output on four different datasets: LEMS, MPEG-7, SiSHA, PASCAL Horses. The top row denotes the given 2D shape and the bottom denotes our results. Thin lines of varying color indicate the symmetry axes of distinct parts. Black ellipses denote our output set of ellipses fit to the parts. Note: our method finds the locations of joints and models them with multiple ellipses (e.g. the limbs of the humanoids).}}{2}{figure.1}}
\newlabel{all_examples}{{1}{2}{Examples of the output on four different datasets: LEMS, MPEG-7, SiSHA, PASCAL Horses. The top row denotes the given 2D shape and the bottom denotes our results. Thin lines of varying color indicate the symmetry axes of distinct parts. Black ellipses denote our output set of ellipses fit to the parts. Note: our method finds the locations of joints and models them with multiple ellipses (e.g. the limbs of the humanoids)}{figure.1}{}}
\@writefile{toc}{\contentsline {section}{\numberline {2}Related Work}{2}{section.2}}
\newlabel{related_works}{{2}{2}{Related Work}{section.2}{}}
\citation{bookstein1979fitting}
\citation{fitzgibbon1999direct}
\citation{lukacs1998faithful}
\citation{xu2010fitting}
\citation{panagiotakis2015parameter}
\citation{biederman1987recognition}
\citation{braunstein1989parts}
\citation{zeng20082d}
\citation{hoffman1984parts}
\citation{latecki1999convexity}
\citation{lien2004approximate}
\citation{liu2010convex}
\citation{ren2011minimum}
\citation{ren2013minimum}
\citation{wang2016shape}
\citation{zeng20082d}
\citation{zeng20082d}
\citation{blum1973biological}
\citation{zeng20082d}
\citation{fitzgibbon1999direct}
\@writefile{lof}{\contentsline {figure}{\numberline {2}{\ignorespaces Overview of our approach. We initialize our approach via 2D skeleton and protrusion cues of the 2D object to produce a set of candidate regions for ellipse fitting. We apply our local ellipse fitting method and minimize the cost of the model for the final results.}}{3}{figure.2}}
\newlabel{overview}{{2}{3}{Overview of our approach. We initialize our approach via 2D skeleton and protrusion cues of the 2D object to produce a set of candidate regions for ellipse fitting. We apply our local ellipse fitting method and minimize the cost of the model for the final results}{figure.2}{}}
\@writefile{toc}{\contentsline {section}{\numberline {3}Our Approach}{3}{section.3}}
\newlabel{approach}{{3}{3}{Our Approach}{section.3}{}}
\citation{blum1973biological}
\citation{zeng20082d}
\@writefile{lof}{\contentsline {figure}{\numberline {3}{\ignorespaces (a) To compute protrusion strength (Eqn. \ref  {protrusion}), we search outwardly from a junction $\mathbf  {j}$ for the base of protrusion $\mathbf  {b}^h_1$ and $\mathbf  {b}^h_2$ at radius $r_\mathbf  {j}$. $\gamma (\mathbf  {s}^\mathbf  {j}_h)$ is the length of protrusion from $\mathbf  {j}$. (b) We perform 2-cut over a region $\mathbf  {R}_j$ with the symmetric axis $\mathbf  {A}_j$ to generate 3 segments $\mathbf  {a}^j_k$ for $k=\{1, 2, 3\}$ and their corresponding subregions $\mathbf  {r}^j_k$ denoted by red, purple and blue. (c) We use least-square ellipse fitting to generate the local ellipse model $\mathbf  {e}^j_k$ for the part region, $\mathbf  {R}_j$.}}{4}{figure.3}}
\newlabel{protrusion_kcuts}{{3}{4}{(a) To compute protrusion strength (\eqnref {protrusion}), we search outwardly from a junction $\mathbf {j}$ for the base of protrusion $\mathbf {b}^h_1$ and $\mathbf {b}^h_2$ at radius $r_\mathbf {j}$. $\gamma (\mathbf {s}^\mathbf {j}_h)$ is the length of protrusion from $\mathbf {j}$. (b) We perform 2-cut over a region $\mathbf {R}_j$ with the symmetric axis $\mathbf {A}_j$ to generate 3 segments $\mathbf {a}^j_k$ for $k=\{1, 2, 3\}$ and their corresponding subregions $\mathbf {r}^j_k$ denoted by red, purple and blue. (c) We use least-square ellipse fitting to generate the local ellipse model $\mathbf {e}^j_k$ for the part region, $\mathbf {R}_j$}{figure.3}{}}
\@writefile{toc}{\contentsline {subsection}{\numberline {3.1}Initialization}{4}{subsection.3.1}}
\newlabel{initialization}{{3.1}{4}{Initialization}{subsection.3.1}{}}
\citation{biederman1987recognition}
\citation{braunstein1989parts}
\newlabel{protrusion}{{1}{5}{Initialization}{equation.3.1}{}}
\@writefile{toc}{\contentsline {subsection}{\numberline {3.2}Local Model Selection}{5}{subsection.3.2}}
\newlabel{local_model_selection}{{3.2}{5}{Local Model Selection}{subsection.3.2}{}}
\newlabel{ellipse_fit_cost}{{2}{5}{Local Model Selection}{equation.3.2}{}}
\newlabel{inner_angle}{{3}{6}{Local Model Selection}{equation.3.3}{}}
\@writefile{toc}{\contentsline {subsection}{\numberline {3.3}Model Cost Minimization}{6}{subsection.3.3}}
\newlabel{model_cost_min}{{3.3}{6}{Model Cost Minimization}{subsection.3.3}{}}
\newlabel{model_cost_minimize}{{4}{6}{Model Cost Minimization}{equation.3.4}{}}
\newlabel{choose_uv}{{5}{6}{Model Cost Minimization}{equation.3.5}{}}
\citation{panagiotakis2015parameter}
\citation{xu2010fitting}
\citation{panagiotakis2015parameter}
\citation{xu2010fitting}
\citation{blum1973biological}
\@writefile{lot}{\contentsline {table}{\numberline {1}{\ignorespaces Intersection-Over-Union (IOU) results (left) and run-time (in seconds) results (right) for each method. Each method was tested on a single core. Our method provides comparable results to the competing methods while outperforming them by a large margin in run-time.}}{7}{table.1}}
\newlabel{experiment_results}{{1}{7}{Intersection-Over-Union (IOU) results (left) and run-time (in seconds) results (right) for each method. Each method was tested on a single core. Our method provides comparable results to the competing methods while outperforming them by a large margin in run-time}{table.1}{}}
\@writefile{toc}{\contentsline {section}{\numberline {4}Experimental Results}{7}{section.4}}
\newlabel{experiments}{{4}{7}{Experimental Results}{section.4}{}}
\@writefile{lof}{\contentsline {figure}{\numberline {4}{\ignorespaces Pseudo-3D model built by applying our method to two images in PASCAL horses. (a) denotes the model of the profile view of a horse. (b) denotes the model the frontal view of another horse. (c) denotes a model generated by combining (a) and (b). We rotate the ellipses about the vertical axis by $22.5^{\circ }$ increments. In (a) and (b), we have no depth information (we assume all ellipsoids lie on the same plane), and thus all parts align perfectly in the highlighted column ($90^{\circ }$ and $270^{\circ }$ rotations). We match the ellipses to the semantic parts of the horses and establish correspondence between the two sets, allowing us to generate a pseudo-3D model. Despite the two images being taken from different horses at different viewpoints and poses, our method is able to register the two and render a richer model representing the horses's 3D structure (see separated legs in the highlighted column).}}{8}{figure.4}}
\newlabel{3d_model}{{4}{8}{Pseudo-3D model built by applying our method to two images in PASCAL horses. (a) denotes the model of the profile view of a horse. (b) denotes the model the frontal view of another horse. (c) denotes a model generated by combining (a) and (b). We rotate the ellipses about the vertical axis by $22.5^{\circ }$ increments. In (a) and (b), we have no depth information (we assume all ellipsoids lie on the same plane), and thus all parts align perfectly in the highlighted column ($90^{\circ }$ and $270^{\circ }$ rotations). We match the ellipses to the semantic parts of the horses and establish correspondence between the two sets, allowing us to generate a pseudo-3D model. Despite the two images being taken from different horses at different viewpoints and poses, our method is able to register the two and render a richer model representing the horses's 3D structure (see separated legs in the highlighted column)}{figure.4}{}}
\@writefile{toc}{\contentsline {section}{\numberline {5}Application of our Model}{8}{section.5}}
\newlabel{application}{{5}{8}{Application of our Model}{section.5}{}}
\@writefile{toc}{\contentsline {section}{\numberline {6}Discussion}{9}{section.6}}
\newlabel{discussion}{{6}{9}{Discussion}{section.6}{}}
\bibdata{egbib}
\bibcite{ben2012dual}{{1}{2012}{{Ben et~al.}}{{Ben, Meng, and Yan}}}
\bibcite{biederman1987recognition}{{2}{1987}{{Biederman}}{{}}}
\bibcite{blum1973biological}{{3}{1973}{{Blum}}{{}}}
\bibcite{bookstein1979fitting}{{4}{1979}{{Bookstein}}{{}}}
\bibcite{braunstein1989parts}{{5}{1989}{{Braunstein et~al.}}{{Braunstein, Hoffman, and Saidpour}}}
\bibcite{chen2014semantic}{{6}{2014}{{Chen et~al.}}{{Chen, Papandreou, Kokkinos, Murphy, and Yuille}}}
\bibcite{fan2015jumpcut}{{7}{2015}{{Fan et~al.}}{{Fan, Zhong, Lischinski, Cohen-Or, and Chen}}}
\bibcite{fitzgibbon1999direct}{{8}{1999}{{Fitzgibbon et~al.}}{{Fitzgibbon, Pilu, and Fisher}}}
\bibcite{grammalidis2000head}{{9}{2000}{{Grammalidis and Strintzis}}{{}}}
\bibcite{hoffman1984parts}{{10}{1984}{{Hoffman and Richards}}{{}}}
\bibcite{kwolek2004stereovision}{{11}{2004}{{Kwolek}}{{}}}
\bibcite{kyriazis2014scalable}{{12}{2014}{{Kyriazis and Argyros}}{{}}}
\bibcite{latecki1999convexity}{{13}{1999}{{Latecki and Lak{\"a}mper}}{{}}}
\bibcite{lien2004approximate}{{14}{2004}{{Lien and Amato}}{{}}}
\bibcite{liu2010convex}{{15}{2010}{{Liu et~al.}}{{Liu, Liu, and Latecki}}}
\bibcite{long2015fully}{{16}{2015}{{Long et~al.}}{{Long, Shelhamer, and Darrell}}}
\bibcite{lukacs1998faithful}{{17}{1998}{{Luk{\'a}cs et~al.}}{{Luk{\'a}cs, Martin, and Marshall}}}
\bibcite{marki2016bilateral}{{18}{2016}{{M{\"a}rki et~al.}}{{M{\"a}rki, Perazzi, Wang, and Sorkine-Hornung}}}
\bibcite{panagiotakis2015parameter}{{19}{2015}{{Panagiotakis and Argyros}}{{}}}
\bibcite{panagiotakis2008shape}{{20}{2008}{{Panagiotakis et~al.}}{{Panagiotakis, Ramasso, Tziritas, Rombaut, and Pellerin}}}
\bibcite{ramakanth2014seamseg}{{21}{2014}{{Ramakanth and Babu}}{{}}}
\bibcite{ren2011minimum}{{22}{2011}{{Ren et~al.}}{{Ren, Yuan, Li, and Liu}}}
\bibcite{ren2013minimum}{{23}{2013}{{Ren et~al.}}{{Ren, Yuan, and Liu}}}
\bibcite{shen2015deepcontour}{{24}{2015}{{Shen et~al.}}{{Shen, Wang, Wang, Bai, and Zhang}}}
\bibcite{shen2016deepskeleton}{{25}{2016}{{Shen et~al.}}{{Shen, Zhao, Jiang, Wang, Bai, and Yuille}}}
\bibcite{taylor2015causal}{{26}{2015}{{Taylor et~al.}}{{Taylor, Karasev, and Soatto}}}
\bibcite{toshev2012shape}{{27}{2012}{{Toshev et~al.}}{{Toshev, Taskar, and Daniilidis}}}
\bibcite{trinh2011skeleton}{{28}{2011}{{Trinh and Kimia}}{{}}}
\bibcite{wang2016shape}{{29}{2016}{{Wang and Lai}}{{}}}
\bibcite{xie2015holistically}{{30}{2015}{{Xie and Tu}}{{}}}
\bibcite{xu2010fitting}{{31}{2010}{{Xu et~al.}}{{Xu, Yi, and Kemp}}}
\bibcite{xu1993randomized}{{32}{1993}{{Xu and Oja}}{{}}}
\bibcite{zeng20082d}{{33}{2008}{{Zeng et~al.}}{{Zeng, Lakaemper, Yang, and Li}}}
\gdef \BMVA@LastPage{12}
