\relax 
\providecommand\hyper@newdestlabel[2]{}
\providecommand\HyperFirstAtBeginDocument{\AtBeginDocument}
\HyperFirstAtBeginDocument{\ifx\hyper@anchor\@undefined
\global\let\oldcontentsline\contentsline
\gdef\contentsline#1#2#3#4{\oldcontentsline{#1}{#2}{#3}}
\global\let\oldnewlabel\newlabel
\gdef\newlabel#1#2{\newlabelxx{#1}#2}
\gdef\newlabelxx#1#2#3#4#5#6{\oldnewlabel{#1}{{#2}{#3}}}
\AtEndDocument{\ifx\hyper@anchor\@undefined
\let\contentsline\oldcontentsline
\let\newlabel\oldnewlabel
\fi}
\fi}
\global\let\hyper@last\relax 
\gdef\HyperFirstAtBeginDocument#1{#1}
\providecommand\HyField@AuxAddToFields[1]{}
\providecommand\HyField@AuxAddToCoFields[2]{}
\citation{panagiotakis2015parameter}
\citation{panagiotakis2015parameter}
\citation{panagiotakis2015parameter}
\citation{panagiotakis2015parameter}
\citation{fitzgibbon1999direct}
\citation{panagiotakis2015parameter}
\bibstyle{ieee}
\bibdata{egbib}
\bibcite{fitzgibbon1999direct}{1}
\bibcite{panagiotakis2015parameter}{2}
\@writefile{toc}{\contentsline {section}{\numberline {1}\hskip -1em.\nobreakspace  {}To All}{1}{section.1}}
\newlabel{to_all}{{1}{1}{\hskip -1em.~To All}{section.1}{}}
\@writefile{brf}{\backcite{panagiotakis2015parameter}{{1}{1}{section.1}}}
\@writefile{brf}{\backcite{panagiotakis2015parameter}{{1}{1}{section.1}}}
\@writefile{brf}{\backcite{panagiotakis2015parameter}{{1}{1}{section.1}}}
\@writefile{toc}{\contentsline {section}{\numberline {2}\hskip -1em.\nobreakspace  {}To Reviewer 1}{1}{section.2}}
\@writefile{brf}{\backcite{panagiotakis2015parameter}{{1}{2}{section.2}}}
\@writefile{toc}{\contentsline {section}{\numberline {3}\hskip -1em.\nobreakspace  {}To Reviewer 3}{1}{section.3}}
\@writefile{brf}{\backcite{fitzgibbon1999direct}{{1}{3}{section.3}}}
\@writefile{toc}{\contentsline {section}{\numberline {4}\hskip -1em.\nobreakspace  {}To Reviewer 4}{1}{section.4}}
\@writefile{brf}{\backcite{panagiotakis2015parameter}{{1}{4}{section.4}}}
